# run_name	dir_samples	dir_data
test_data_$(date +%F)_$(hostname)	${repo_path}/test_data	${repo_path}/test_data/analysis_test_data_$(date +%F)
# test_data_docker_$(date +%F)	/AQUAMIS/test_data/fastq	/mnt/scratch/analysis/docker/analysis_docker_$(date +%F)
# fail_data_$(date +%F)_$(hostname)	/cephfs/abteilung4/Projects_NGS/aquamis_contamination/resources/fail_data	$repo_path/test_data/analysis_fail_data_$(date +%F)
